{
  "extends": ["tslint:recommended", "tslint-config-prettier"],
  "linterOptions": {
    "exclude": ["dist/**/*.js", "node_modules/**/*.ts"]
  },
  "rules": {
    "arrow-parens": true,
    "jsx-wrap-multiline": false,
    "jsx-no-lambda": false,
    "jsx-boolean-value": false,
    "noImplicitAny": false,
    "no-namespace": false,
    "no-duplicate-imports": true,
    "no-switch-case-fall-through": true,
    "object-literal-sort-keys": true,
    "ordered-imports": [
      true,
      {
        "import-sources-order": "case-insensitive",
        "named-imports-order": "case-insensitive"
      }
    ],
    "whitespace": [true, "check-module"],
    "no-console": [true, "debug", "info", "time", "timeEnd", "trace"],
    "quotemark": [true, "single", "jsx-double", "avoid-escape"],
    "semicolon": [true, "always", "ignore-bound-class-methods"],
    "variable-name": [
      true,
      "ban-keywords",
      "check-format",
      "allow-pascal-case",
      "allow-leading-underscore"
    ]
  }
}
